module bitbucket.org/gank-global/rmq

go 1.15

require (
	github.com/adjust/gocheck v0.0.0-20131111155431-fbc315b36e0e
	github.com/adjust/uniuri v0.0.0-20130923163420-498743145e60
	github.com/go-redis/redis/v8 v8.11.4
	launchpad.net/gocheck v0.0.0-20140225173054-000000000087 // indirect
)
